{
	"id": "5e740179-55df-435b-a520-8587121cb98a",
	"name": "Forge Starter Pack - Webhook Exercise",
	"values": [
		{
			"key": "2LeggedToken",
			"value": "",
			"enabled": true
		},
		{
			"key": "oauth2AuthorizeUrl",
			"value": "https://developer.api.autodesk.com/authentication/v1/authorize",
			"enabled": true
		},
		{
			"key": "oauth2GetTokenUrl",
			"value": "https://developer.api.autodesk.com/authentication/v1/gettoken",
			"enabled": true
		},
		{
			"key": "callBackUrl",
			"value": "https://www.getpostman.com/oauth2/callback",
			"enabled": true
		},
		{
			"key": "3LeggedToken",
			"value": "",
			"description": "",
			"enabled": true
		},
		{
			"key": "refreshToken",
			"value": "",
			"enabled": true
		},
		{
			"key": "baseUrl",
			"value": "https://developer.api.autodesk.com",
			"enabled": true
		},
		{
			"key": "clientId",
			"value": "",
			"enabled": true
		},
		{
			"key": "clientSecret",
			"value": "",
			"enabled": true
		},
		{
			"key": "scope",
			"value": "bucket:create bucket:read bucket:update bucket:delete data:read data:write data:create viewables:read user:write user:read account:write account:read code:all",
			"enabled": true
		},
		{
			"key": "system",
			"value": "data",
			"enabled": true
		},
		{
			"key": "event",
			"value": "extraction.finished",
			"description": "",
			"enabled": true
		},
		{
			"key": "webHookCallbackUrl",
			"value": "",
			"description": "",
			"enabled": true
		},
		{
			"key": "webHookFolder",
			"value": "",
			"description": "",
			"enabled": true
		}
	],
	"_postman_variable_scope": "environment",
	"_postman_exported_at": "2019-02-26T20:56:27.604Z",
	"_postman_exported_using": "Postman/6.7.3"
}